{
  "kind": "collectionType",
  "collectionName": "posts",
  "info": {
    "name": "Posts"
  },
  "options": {
    "increments": true,
    "timestamps": true
  },
  "attributes": {
    "text": {
      "type": "text"
    }
  }
}
